<svg width="156" height="44" viewBox="0 0 156 44" fill="none" xmlns="http://www.w3.org/2000/svg">
<g clip-path="url(#clip0)">
<path d="M33.5088 8.35013C33.4776 8.13444 33.2904 8.0112 33.1344 8.0112C32.9784 8.0112 29.8896 7.94957 29.8896 7.94957C29.8896 7.94957 27.3 5.48458 27.0504 5.20727C26.8008 4.96077 26.3016 5.0224 26.1144 5.08402C26.1144 5.08402 25.6152 5.23809 24.804 5.48458C24.6792 5.05321 24.4608 4.5294 24.18 3.97478C23.2752 2.24929 21.9024 1.32492 20.28 1.32492C20.1552 1.32492 20.0616 1.32492 19.9368 1.35573C19.8744 1.29411 19.8432 1.23248 19.7808 1.20167C19.0632 0.462175 18.1584 0.092427 17.0664 0.123239C14.976 0.184864 12.8856 1.69467 11.1696 4.34453C9.984 6.22408 9.0792 8.56582 8.7984 10.3837C6.396 11.1232 4.7112 11.647 4.6488 11.647C3.432 12.0168 3.4008 12.0476 3.2448 13.1877C3.1824 14.0504 0 38.3613 0 38.3613L26.7072 42.9216L38.2824 40.0868C38.2512 40.0868 33.54 8.56582 33.5088 8.35013ZM23.4624 5.91596C22.8384 6.10083 22.152 6.31652 21.4032 6.56302C21.4032 5.5154 21.2472 4.0364 20.7792 2.80391C22.3704 3.05041 23.1504 4.83753 23.4624 5.91596ZM19.9992 6.96358C18.5952 7.39495 17.0664 7.85713 15.5376 8.31932C15.9744 6.68626 16.7856 5.08402 17.784 4.00559C18.1584 3.60503 18.6888 3.17366 19.2816 2.92716C19.9056 4.12884 20.0304 5.82352 19.9992 6.96358ZM17.1288 1.50979C17.628 1.50979 18.0336 1.60223 18.3768 1.84873C17.8152 2.12604 17.2536 2.55741 16.7544 3.11204C15.4128 4.5294 14.3832 6.71708 13.9776 8.84313C12.6984 9.24369 11.4504 9.61344 10.3272 9.95237C11.076 6.59383 13.9152 1.60223 17.1288 1.50979Z" fill="#95BF47"/>
<path d="M33.1352 8.01121C32.9792 8.01121 29.8904 7.94958 29.8904 7.94958C29.8904 7.94958 27.3008 5.4846 27.0512 5.20728C26.9576 5.11485 26.8328 5.05322 26.708 5.05322V42.9216L38.2832 40.0868C38.2832 40.0868 33.572 8.56583 33.5408 8.35014C33.4784 8.13446 33.2912 8.01121 33.1352 8.01121Z" fill="#5E8E3E"/>
<path d="M20.2807 13.8964L18.9391 18.8572C18.9391 18.8572 17.4415 18.1793 15.6631 18.3026C13.0423 18.4566 13.0423 20.0897 13.0423 20.4902C13.1983 22.7087 19.0951 23.2017 19.4383 28.409C19.6879 32.5071 17.2543 35.311 13.6975 35.5267C9.45426 35.7424 7.11426 33.2774 7.11426 33.2774L8.01906 29.4874C8.01906 29.4874 10.3903 31.2437 12.2623 31.1205C13.4791 31.0589 13.9471 30.0421 13.8847 29.3642C13.6975 26.4678 8.89266 26.6527 8.58066 21.8768C8.33106 17.8712 10.9831 13.8348 16.8487 13.465C19.1263 13.311 20.2807 13.8964 20.2807 13.8964Z" fill="white"/>
<path d="M53.9446 24.465C52.603 23.7563 51.9166 23.14 51.9166 22.3081C51.9166 21.2605 52.8838 20.5826 54.3814 20.5826C56.1286 20.5826 57.6886 21.2913 57.6886 21.2913L58.9054 17.5938C58.9054 17.5938 57.7822 16.7311 54.475 16.7311C49.8574 16.7311 46.6438 19.3501 46.6438 23.0168C46.6438 25.112 48.1414 26.6835 50.1382 27.8235C51.7606 28.7171 52.3222 29.3641 52.3222 30.3193C52.3222 31.3053 51.511 32.1064 50.0134 32.1064C47.7982 32.1064 45.6766 30.9664 45.6766 30.9664L44.3662 34.6638C44.3662 34.6638 46.3006 35.958 49.5766 35.958C54.319 35.958 57.751 33.647 57.751 29.4874C57.7198 27.2381 56.0038 25.6358 53.9446 24.465Z" fill="black"/>
<path d="M72.8515 16.6694C70.5115 16.6694 68.6707 17.7787 67.2667 19.4425L67.2043 19.4117L69.2323 8.93555H63.9595L58.8115 35.619H64.0843L65.8315 26.4986C66.5179 23.0476 68.3275 20.9215 70.0123 20.9215C71.1979 20.9215 71.6659 21.7227 71.6659 22.8627C71.6659 23.5714 71.6035 24.465 71.4475 25.1736L69.4507 35.619H74.7235L76.7827 24.8347C77.0011 23.6946 77.1571 22.3389 77.1571 21.4145C77.1883 18.4566 75.6283 16.6694 72.8515 16.6694Z" fill="black"/>
<path d="M89.1383 16.6694C82.7735 16.6694 78.5615 22.3389 78.5615 28.6554C78.5615 32.6918 81.0887 35.958 85.8311 35.958C92.0711 35.958 96.2831 30.4425 96.2831 23.972C96.3143 20.2437 94.0991 16.6694 89.1383 16.6694ZM86.5487 31.9832C84.7391 31.9832 83.9903 30.4734 83.9903 28.563C83.9903 25.5742 85.5503 20.7058 88.4207 20.7058C90.2927 20.7058 90.9167 22.3081 90.9167 23.8487C90.9167 27.0532 89.3255 31.9832 86.5487 31.9832Z" fill="black"/>
<path d="M109.824 16.6694C106.267 16.6694 104.239 19.7815 104.239 19.7815H104.177L104.489 16.9776H99.8088C99.5904 18.8571 99.1536 21.7535 98.748 23.9103L95.0664 43.014H100.339L101.806 35.2801H101.93C101.93 35.2801 103.022 35.9579 105.019 35.9579C111.228 35.9579 115.284 29.6722 115.284 23.3249C115.284 19.8123 113.693 16.6694 109.824 16.6694ZM104.77 32.0448C103.397 32.0448 102.586 31.2745 102.586 31.2745L103.459 26.4061C104.083 23.14 105.799 20.9832 107.64 20.9832C109.262 20.9832 109.762 22.4622 109.762 23.8487C109.762 27.2381 107.734 32.0448 104.77 32.0448Z" fill="black"/>
<path d="M122.834 9.18201C121.149 9.18201 119.808 10.5069 119.808 12.2016C119.808 13.7422 120.806 14.8207 122.304 14.8207H122.366C124.02 14.8207 125.424 13.7114 125.455 11.8011C125.455 10.2912 124.425 9.18201 122.834 9.18201Z" fill="black"/>
<path d="M115.439 35.5882H120.712L124.3 17.1008H118.996L115.439 35.5882Z" fill="black"/>
<path d="M137.748 17.07H134.066L134.253 16.2073C134.565 14.4201 135.626 12.8487 137.404 12.8487C138.34 12.8487 139.089 13.126 139.089 13.126L140.119 9.02798C140.119 9.02798 139.214 8.5658 137.248 8.5658C135.376 8.5658 133.504 9.08961 132.069 10.2913C130.26 11.8011 129.417 13.9888 129.012 16.2073L128.856 17.07H126.391L125.611 21.014H128.076L125.268 35.619H130.54L133.348 21.014H136.999L137.748 17.07Z" fill="black"/>
<path d="M150.478 17.1008C150.478 17.1008 147.171 25.3277 145.704 29.8263H145.642C145.548 28.3781 144.331 17.1008 144.331 17.1008H138.778L141.96 34.0784C142.023 34.4482 141.991 34.6947 141.835 34.9412C141.211 36.112 140.182 37.2521 138.965 38.084C137.967 38.7927 136.843 39.2549 135.97 39.563L137.436 44C138.497 43.7843 140.743 42.8908 142.615 41.1653C145.018 38.9468 147.264 35.4958 149.542 30.8123L156 17.1008H150.478Z" fill="black"/>
</g>
<defs>
<clipPath id="clip0">
<rect width="156" height="44" fill="white"/>
</clipPath>
</defs>
</svg>
