<svg width="50" height="50" viewBox="0 0 50 50" fill="none" xmlns="http://www.w3.org/2000/svg">
<path d="M20.8855 2.98936C23.3389 1.20685 26.6611 1.20685 29.1145 2.98936L44.6619 14.2852C47.1153 16.0677 48.1419 19.2273 47.2048 22.1115L41.2662 40.3885C40.3291 43.2727 37.6414 45.2254 34.6088 45.2254H15.3912C12.3586 45.2254 9.67089 43.2727 8.73377 40.3885L2.79518 22.1115C1.85806 19.2273 2.88467 16.0677 5.33808 14.2852L20.8855 2.98936Z" fill="#FFCE00"/>
<path d="M24.0489 14.9271C24.3483 14.0057 25.6517 14.0057 25.9511 14.9271L27.6942 20.2918C27.828 20.7038 28.212 20.9828 28.6452 20.9828H34.2861C35.2548 20.9828 35.6576 22.2224 34.8738 22.7918L30.3103 26.1074C29.9598 26.362 29.8132 26.8134 29.947 27.2254L31.6902 32.5902C31.9895 33.5115 30.935 34.2776 30.1513 33.7082L25.5878 30.3926C25.2373 30.138 24.7627 30.138 24.4122 30.3926L19.8487 33.7082C19.065 34.2776 18.0105 33.5115 18.3098 32.5902L20.053 27.2254C20.1868 26.8134 20.0402 26.362 19.6897 26.1074L15.1262 22.7918C14.3425 22.2224 14.7452 20.9828 15.7139 20.9828H21.3548C21.788 20.9828 22.172 20.7038 22.3058 20.2918L24.0489 14.9271Z" fill="white"/>
</svg>
